{
  "type": "service_account",
  "project_id": "seclot-75036",
  "private_key_id": "a2fd3d864a109ced6419b5d42b38d84f0ead76eb",
  "private_key": "-----BEGIN PRIVATE KEY-----\nMIIEvAIBADANBgkqhkiG9w0BAQEFAASCBKYwggSiAgEAAoIBAQDsyJ2forXfh8U0\nKAQ9aDWZBBeJijebwHOOb/GlHD7zdQkxOh1+1O8J4SsMmIh4XGxAwxPNnoT7YsOW\nCA9GO1bl7Abmww9HlZd508nnWpHTiqYbnbjMdiyxgCHXKuMUjtr3wy/SbQnVu63a\nxweNO4U+LJ/IFnnABewI71cQtgTzIf1HSDvxxa1L9r6wOSAcrgtYj3UtsZaiA7g2\nDzTFstvKDNMN9y3iZuV33wjUjBKVUvg/wZFbEFLnxddhUWd5sNym7xsw866ashLO\npiQWPrfB0S9B9JSi6l5c1qr/QDigo+mTDuNFfqcNmXGuMGaAzDkmYBYw5FO1DmtS\ncHTB/z1JAgMBAAECggEAAL147gW1gkIq/N+8jnlx/nGe3Vm07AqWD7NiLDhwGRJ3\nrskykgS6Tcd6El55MEarlxcv65RyWP0hauamTGQj164qLZXGKV+Keno/NmtoBUME\nbJuD4uVFKw/Sr561NbUSA+YKcDzpQ9tA8z2PRhXjiBuSn5p0G+c4G7yKmka8SRDy\nPZjMEYSBjod7amU7uwjqAiKBcpsnMCiCgCw0rl6/RH1R/53tbSQoqwiJp25oHpE9\nGLPopEeAQUUosbczOrJX6qoUE3BH/WhpjT+BOi4FCl4kKKMrISSUaoR5Pdz4IVAr\n36lCGrktrVaZeDtNU0J/k24hQTFUwuXuxyDizQC9YQKBgQD6CJXarbjNDa1dhEoN\nP/6sWQ1asfauot2gN7i/yMSSDvEBKLfRDWL9rlqVR2Dvu96ucSQfGg44CidKq+/9\nq9v8OiZ4WDyqcBH2k0CF1UgQ45GLXzahVTyf7AJBvrzz2MxxWsM2S3O6piZR4brH\nauMks/9ExD+pVOMcaVRv0cpHaQKBgQDybxbF0Aj6KJFG2qkXGYLpLtYrU/grrDIC\nLhtzQpOZbc19BiiLZXIdmH6Fy7f5berquEx/IFo1Dd423U225us+Vw/+YOyO1FXG\nvamOzLuVsqqC+Y00vE/uEA99YUCMA7gqHHBhPONT77Pkqf6+1SXEV+88PPon3d/o\nmghpON1q4QKBgDx+N0NhJIT3+inWB9SM1yD7qq92vyghX12UHa7I9EYiN00AfPin\nNHwL4v6a9mkKGyY5WXPs6ePFERyP3NCS8/ZiW0xijMrvsmjl14aJw5XSeTQvJRiD\ndtd6UlF1xGF64nvKadCJEMbny/2jj30P70TCB9CranudfhUxpqwnJbmBAoGAIyg5\nBTbGFoELkFrlapQoh+hi5qWmt66hEe/dyzk8bmOeCSN7fbuYcPJMZtrEM0fdaWyQ\nq17ltgvszcgKHRwfwUqe5yTnKU9hoRCgJjVKfssKLzRBZgRpEv0BQg14btWbP4Ag\nS/mofeOlEuQULVh7wZ1+9B1jqaRjdDfiQGAevAECgYA/zUUbkHFvC44HQT1Lk1f4\nzvnpMNGvNwrnU6MIwjiooF9j8vLKT/vO03kmueROQ9JmjOd3WiCXskI9BLi6M5M1\nc5MAHQKYNEe9GsuNF1agjPNcc3MA9y5c/2kg1cpIG3WQLEQRYUf6ocBKdHTdFrvF\nskAm+mj19zdHWTdBSbqCYQ==\n-----END PRIVATE KEY-----\n",
  "client_email": "firebase-adminsdk-9zsmq@seclot-75036.iam.gserviceaccount.com",
  "client_id": "100486106683878481884",
  "auth_uri": "https://accounts.google.com/o/oauth2/auth",
  "token_uri": "https://oauth2.googleapis.com/token",
  "auth_provider_x509_cert_url": "https://www.googleapis.com/oauth2/v1/certs",
  "client_x509_cert_url": "https://www.googleapis.com/robot/v1/metadata/x509/firebase-adminsdk-9zsmq%40seclot-75036.iam.gserviceaccount.com"
}
